<?xml version="1.0" encoding="UTF-8"?>
<CustomTab xmlns="http://soap.sforce.com/2006/04/metadata">
    <auraComponent>ImagesPage</auraComponent>
    <label>Images</label>
    <motif>Custom38: Camera</motif>
</CustomTab>
